#### ####
#  ###  #
# $ * $ #
#   +   #
### .$###
  # . #
  #####
; MICROCOSMOS 01
#################
#  #  #  #  #   #
#.$   #  #.$    #
#  #.$ .$   #   #
# @#  #  #  #   #
#################
; MICROCOSMOS 02
   ####
####  #
#  $  ##
# #$#  #
#  $   #
#.###  #
#.#### #
#. @   #
########
; MICROCOSMOS 03
      ####
####### .#
# $ $ $$ #
#   @ ...#
###   ####
  #####
; MICROCOSMOS 04
     ####
 #####  #
 # $ $  #
 #.# #. #
 # $@$ ##
##.# #.##
#  * *  #
#   #   #
#########
; MICROCOSMOS 05
 #####
 #   #
 # # ##
## *  ##
# $*$  #
#  * # #
## .  +#
 #######
; MICROCOSMOS 06
 #####
 #   #
 # #$##
## @  #
# .#$ #
# .  ##
# .#$#
##   #
 #####
; MICROCOSMOS 07
  ####
###  ###
#   .  #
#  $ $ #
##.#+#.#
 # $ $ #
 ###  ##
   ####
; MICROCOSMOS 08
    ####
#####  #
# $   $#
#  .#. #
## ### ##
 # .#.  #
 #$ @ $ #
 #  #####
 ####
; MICROCOSMOS 09
 #####
##   #
#  #.##
# $$. #
## @  #
 # #. #
 # $ ##
 # ###
 #  #
 #  #
 #  #
 ####
; MICROCOSMOS 10
  #####
  #+  ###
 ##*# $ #
 # *    #
## * # ##
#  *   #
#   ####
#####
; MICROCOSMOS 11
######
#    ##
#  *  #
# $*$ #
## * ##
 # * #
 # . #
 ##+##
  ###
; MICROCOSMOS 12
 #####
##   ###
# ...* #
# #@$# #
# $    #
### #$##
  #   #
  #####
; MICROCOSMOS 13
 #####
 #   #
 #.#$##
 #    #
 #.#$ #
 #   ##
 #.#$#
##   #
# .#$#
# @  #
#  ###
####
; MICROCOSMOS 14
  ####
###  #
#    ##
#  #  ###
## . . .#
##$##.#$##
# $  @ $ #
#   ##   #
##########
; MICROCOSMOS 15
 ####
 #  #####
 #   $  #
 #$# #  #
##  +  ##
#  #.#$#
#  $.  #
### . ##
  #####
; MICROCOSMOS 16
#### ####
#  ###  #
#  $ $  #
# $#.## #
##  .   ##
 # .@.#$ #
 ## #    #
  #   ####
  #####
; MICROCOSMOS 17
  #######
 ##  #  #
 # * *  #
##   #  #
#  *#+ ##
#     $#
#####  #
    ####
; MICROCOSMOS 18
 #######
 #  #  #
 #$ + $#
 # .#. #
##$.#.$##
# $ . $ #
#   #   #
#########
; MICROCOSMOS 19
    #####
#####   ##
#   #$#  #
#   $.@# #
## ##..  #
#  #.  ###
#  $ $ #
#  #####
####
; MICROCOSMOS 20
  #####
  #   ###
###*# $ #
# $ @ # #
# # ..  #
# . #$###
##$.  #
 #  ###
 ####
; MICROCOSMOS 21
     ####
 #####  #
 # $    #
## #.##$#
#  # @. #
#  .$ # ##
## ##.#  #
 #    $  #
 #  ######
 ####
; MICROCOSMOS 22
#####
#   ###
#.#$  #
# @$* #
#  $  #
##.#.##
 #   #
 #####
; MICROCOSMOS 23
     #####
 #####   #
 # $ . # #
 # # $$  #
## ## # ##
#  $.$. #
# ##   ##
#  .@.##
#######
; MICROCOSMOS 24
     ####
  ####  #
  #..   #
### $@# ##
#  $ #.. #
# $   $  #
####  ####
   ####
; MICROCOSMOS 25
  ########
  #   #  #
  #   $. #
 ###$##  #
 # $.## ##
##  .*   #
#  #$#   #
# .@ #####
##   #
 #####
; MICROCOSMOS 26
 #####
 #   ###
## #$ @#
# . $  #
#...#$##
# #  $ #
#  #   #
##   ###
 #####
; MICROCOSMOS 27
     ####
    ##  #
   ## . #
#### $  #
# $ $.@##
#  .  ##
#######
; MICROCOSMOS 28
   ####
 ###  #
## @$ #
# .$  #
# .* ##
# .$ #
##  ##
 ####
; MICROCOSMOS 29
######
#   .#
# . @#
# # ###
# # $ ##
# *.   ##
#### $$ ##
   ##    #
    ##   #
     #####
; MICROCOSMOS 30
  #####
###   #
#  *# ##
# #  * #
# *  # #
## #+  #
 #   $##
 ###  #
   ####
; MICROCOSMOS 31
  #####
  #   #
###*# ##
#    * #
# #  # #
# * +  #
##  #$##
 ##   #
  #####
; MICROCOSMOS 32
  ####
###.@###
#      #
# *..# #
## #$$ #
 #    ##
 ##$# #
  #   #
  #####
; MICROCOSMOS 33
 #########
 #  ##   #
##  *  # #
# .$#*@  #
#   *   ##
#########
; MICROCOSMOS 34
########
#   *  #
# +*** #
##  $  #
 ##   ##
  ##  #
   ####
; MICROCOSMOS 35
 ####
 #  #
##.@#
# .$#####
# $$ $  #
# ..    #
####  ###
   ####
; MICROCOSMOS 36
     ####
######  #
# $  $  #
# #  .# ##
#  . #.@ #
##$# *   #
 #   #####
 #####
; MICROCOSMOS 37
  #####
 ##   ###
 #      #
 #*#*#* #
 # #@$ ##
## # #.#
#      #
#   #  #
########
; MICROCOSMOS 38
  #####
###   ##
# $$.. #
#  .@# #
## #   #
 # $* ##
 ###  #
   ####
; MICROCOSMOS 39
  #####
###   ##
#  $#  #
#  .@.$##
##.# #  #
 # $    #
 ##  ####
  ####
; MICROCOSMOS 40
